## Title: LibItemID
## Version: 1.00.00
## Interface: 60200
## Notes: Provides ID information, Links and other data on items, spells, quests and more. This library is intended for use in other addons that need this functionality.
## LoadOnDemand: 0
## Author: Kjasi
## X-URL: https://bitbucket.org/Kjasi/libitemid
## X-Feedback: https://bitbucket.org/Kjasi/libitemid

Load.xml